group	name	value
Correct	Android	10292
FP_a	Android	112
FP_b	Android	307
FP_c	Android	141
Correct	Blackberry	4499
FP_a	Blackberry	0
FP_b	Blackberry	14
FP_c	Blackberry	30
Correct	iPhone	6402
FP_a	iPhone	85
FP_b	iPhone	109
FP_c	iPhone	84
Correct	Windows	8732
FP_a	Windows	18
FP_b	Windows	94
FP_c	Windows	50